Lab 5
…
dangerous_vehicles <- fatal %>%
  filter(!(MakeCode == "NA")) %>%
  left_join(state_code, by = "StateCode") %>%
  left_join(make_code, by = "MakeCode") %>%
  group_by(State, Make) %>%
  summarize(n = n()) %>%
  group_by(State) %>%
  filter(n == max(n))

## `summarise()` regrouping output by 'State' (override with `.groups` argument)

dangerous_vehicles

## # A tibble: 54 x 3
## # Groups:   State [51]
##    State                Make          n
##    <fct>                <fct>     <int>
##  1 Alabama              Ford        138
##  2 Alaska               Ford          9
##  3 Arizona              Chevrolet    88
##  4 Arkansas             Chevrolet    88
##  5 California           Toyota      351
##  6 Colorado             Ford         63
##  7 Colorado             Honda        63
##  8 Connecticut          Honda        28
##  9 Delaware             Honda        12
## 10 District of Columbia Honda         5
## # ... with 44 more rows
…
## `summarise()` regrouping output by 'region', 'subregion' (override with `.groups` argument)

#Counties we do not have map data for 
nomatch3 <- county_level %>% 
  anti_join(counties, by = c("region", "subregion")) 
unique(nomatch3) 

## # A tibble: 108 x 4
## # Groups:   region, subregion [108]
##    region  subregion            CountyCode totDeaths
##    <chr>   <chr>                     <int>     <int>
##  1 alabama dekalb                       49        22
##  2 alabama st. clair                   115        19
##  3 alaska  aleutians east               13         1
##  4 alaska  aleutians west               16         1
##  5 alaska  anchorage                    20        18
##  6 alaska  bethel                       50         4
##  7 alaska  bristol bay                  60         1
##  8 alaska  denali                       68         4
##  9 alaska  dillingham                   70         1
## 10 alaska  fairbanks north star         90        12
## # ... with 98 more rows
…
